[{"id":1,"num_cta":"3473727849","tipo":"AHORRO","saldo":4419,"moneda":"CNY","id_user":20},
{"id":2,"num_cta":"3383615391","tipo":"CORRIENTE","saldo":2929,"moneda":"PHP","id_user":8},
{"id":3,"num_cta":"7531093510","tipo":"AHORRO","saldo":6627,"moneda":"SEK","id_user":17},
{"id":4,"num_cta":"0743351711","tipo":"AHORRO","saldo":8875,"moneda":"PLN","id_user":16},
{"id":5,"num_cta":"8850864701","tipo":"CORRIENTE","saldo":1739,"moneda":"EUR","id_user":4},
{"id":6,"num_cta":"1579381847","tipo":"PLAZO","saldo":2283,"moneda":"HRK","id_user":2},
{"id":7,"num_cta":"2020103001","tipo":"AHORRO","saldo":141,"moneda":"BHD","id_user":12},
{"id":8,"num_cta":"2447315139","tipo":"CORRIENTE","saldo":4125,"moneda":"PHP","id_user":6},
{"id":9,"num_cta":"0292366701","tipo":"CORRIENTE","saldo":4159,"moneda":"RUB","id_user":5},
{"id":10,"num_cta":"6595442280","tipo":"CORRIENTE","saldo":3563,"moneda":"XOF","id_user":4},
{"id":11,"num_cta":"3307108778","tipo":"AHORRO","saldo":4877,"moneda":"PHP","id_user":20},
{"id":12,"num_cta":"9716337647","tipo":"AHORRO","saldo":1530,"moneda":"CNY","id_user":19},
{"id":13,"num_cta":"0483378003","tipo":"CORRIENTE","saldo":7898,"moneda":"PLN","id_user":12},
{"id":14,"num_cta":"1705215572","tipo":"AHORRO","saldo":8843,"moneda":"ARS","id_user":7},
{"id":15,"num_cta":"3379386154","tipo":"CORRIENTE","saldo":329,"moneda":"RUB","id_user":13},
{"id":16,"num_cta":"4145106520","tipo":"CORRIENTE","saldo":6956,"moneda":"UAH","id_user":16},
{"id":17,"num_cta":"5166714520","tipo":"AHORRO","saldo":3784,"moneda":"CNY","id_user":19},
{"id":18,"num_cta":"5144876773","tipo":"SUELDO","saldo":7998,"moneda":"AUD","id_user":17},
{"id":19,"num_cta":"6765239227","tipo":"AHORRO","saldo":3282,"moneda":"CNY","id_user":3},
{"id":20,"num_cta":"7131266663","tipo":"SUELDO","saldo":7456,"moneda":"CNY","id_user":10},
{"id":21,"num_cta":"5942508445","tipo":"PLAZO","saldo":2180,"moneda":"CNY","id_user":13},
{"id":22,"num_cta":"6093915980","tipo":"SUELDO","saldo":3733,"moneda":"NZD","id_user":20},
{"id":23,"num_cta":"7146093174","tipo":"SUELDO","saldo":5465,"moneda":"THB","id_user":8},
{"id":24,"num_cta":"9373356100","tipo":"AHORRO","saldo":4623,"moneda":"IDR","id_user":10},
{"id":25,"num_cta":"5582841571","tipo":"CORRIENTE","saldo":2178,"moneda":"EUR","id_user":4},
{"id":26,"num_cta":"1232416452","tipo":"CORRIENTE","saldo":7964,"moneda":"USD","id_user":2},
{"id":27,"num_cta":"8839510672","tipo":"PLAZO","saldo":8812,"moneda":"USD","id_user":8},
{"id":28,"num_cta":"3444096119","tipo":"CORRIENTE","saldo":7106,"moneda":"UZS","id_user":7},
{"id":29,"num_cta":"8303699555","tipo":"SUELDO","saldo":9115,"moneda":"IDR","id_user":6},
{"id":30,"num_cta":"3604024781","tipo":"AHORRO","saldo":997,"moneda":"COP","id_user":20},
{"id":31,"num_cta":"8631371157","tipo":"CORRIENTE","saldo":6063,"moneda":"CNY","id_user":14},
{"id":32,"num_cta":"0145673286","tipo":"AHORRO","saldo":9963,"moneda":"RUB","id_user":12},
{"id":33,"num_cta":"7000188758","tipo":"CORRIENTE","saldo":3920,"moneda":"VEF","id_user":8},
{"id":34,"num_cta":"2236175809","tipo":"CORRIENTE","saldo":2069,"moneda":"EUR","id_user":7},
{"id":35,"num_cta":"8754962854","tipo":"SUELDO","saldo":8753,"moneda":"CZK","id_user":2},
{"id":36,"num_cta":"2650796065","tipo":"SUELDO","saldo":1834,"moneda":"PLN","id_user":9},
{"id":37,"num_cta":"2732600091","tipo":"SUELDO","saldo":6185,"moneda":"PHP","id_user":16},
{"id":38,"num_cta":"7705203170","tipo":"PLAZO","saldo":2338,"moneda":"EUR","id_user":4},
{"id":39,"num_cta":"1506352227","tipo":"PLAZO","saldo":1571,"moneda":"EUR","id_user":3},
{"id":40,"num_cta":"9986209382","tipo":"PLAZO","saldo":3108,"moneda":"PLN","id_user":8}]
