[{"ID":1,"first_name":"Aristotle","last_name":"Michiel","email":"amichiel0@ifeng.com","password":"XvzVGkgRf7M"},
{"ID":2,"first_name":"Edy","last_name":"Nisco","email":"enisco1@facebook.com","password":"Cm6rAhVGSvF"},
{"ID":3,"first_name":"Barrett","last_name":"Jenkison","email":"bjenkison2@drupal.org","password":"65DjpWJ"},
{"ID":4,"first_name":"Josselyn","last_name":"Greenhow","email":"jgreenhow3@paypal.com","password":"QOD2R9o7Em"},
{"ID":5,"first_name":"Peggi","last_name":"Dundendale","email":"pdundendale4@constantcontact.com","password":"Ohrn5C4"},
{"ID":6,"first_name":"Jolie","last_name":"Jenik","email":"jjenik5@baidu.com","password":"LIexPncWG"},
{"ID":7,"first_name":"Theo","last_name":"Codeman","email":"tcodeman6@cisco.com","password":"1sy7rwBfMXtH"},
{"ID":8,"first_name":"Valle","last_name":"Pautard","email":"vpautard7@skype.com","password":"FWAOm7"},
{"ID":9,"first_name":"Wakefield","last_name":"Adolfson","email":"wadolfson8@cocolog-nifty.com","password":"ss47Yl"},
{"ID":10,"first_name":"Pearce","last_name":"Tranfield","email":"ptranfield9@imageshack.us","password":"qVjstGj"},
{"ID":11,"first_name":"Piotr","last_name":"Lowdyane","email":"plowdyanea@google.com","password":"ifayzr"},
{"ID":12,"first_name":"Joete","last_name":"Greet","email":"jgreetb@google.fr","password":"XBtnCT8vK"},
{"ID":13,"first_name":"Kimbell","last_name":"Preuvost","email":"kpreuvostc@a8.net","password":"MFTaOUGt16d"},
{"ID":14,"first_name":"Sherwin","last_name":"Kubica","email":"skubicad@artisteer.com","password":"1Ea3oO"},
{"ID":15,"first_name":"Klemens","last_name":"Johnys","email":"kjohnyse@arizona.edu","password":"WBZ4KHnI3qec"},
{"ID":16,"first_name":"Lulita","last_name":"Burchatt","email":"lburchattf@fda.gov","password":"3tyBeJaXonUN"},
{"ID":17,"first_name":"Farrah","last_name":"Strike","email":"fstrikeg@linkedin.com","password":"ZP1r0PcRU"},
{"ID":18,"first_name":"Golda","last_name":"Duplain","email":"gduplainh@friendfeed.com","password":"49zWaZO"},
{"ID":19,"first_name":"Mack","last_name":"Scholte","email":"mscholtei@blinklist.com","password":"8V3kK5XHadv"},
{"ID":20,"first_name":"Gallard","last_name":"Gervaise","email":"ggervaisej@ning.com","password":"7BfQu7a"}]
